^C:\MYFILES\SAMPLE CODE\BATTLECITY\BATTLECITY\BATTLECITY.H
C:\MYFILES\SAMPLE CODE\BATTLECITY\BATTLECITY\GENERATEDFILES\DEBUG\MOC_BATTLECITY.CPP
^C:\MYFILES\SAMPLE CODE\BATTLECITY\BATTLECITY\BATTLECITY.UI
C:\MYFILES\SAMPLE CODE\BATTLECITY\BATTLECITY\GENERATEDFILES\UI_BATTLECITY.H
^C:\MYFILES\SAMPLE CODE\BATTLECITY\BATTLECITY\CONNECTIONWIDGET.H
C:\MYFILES\SAMPLE CODE\BATTLECITY\BATTLECITY\GENERATEDFILES\DEBUG\MOC_CONNECTIONWIDGET.CPP
^C:\MYFILES\SAMPLE CODE\BATTLECITY\BATTLECITY\BATTLECITY.QRC
C:\MYFILES\SAMPLE CODE\BATTLECITY\BATTLECITY\GENERATEDFILES\QRC_BATTLECITY.CPP
