^C:\MYFILES\SAMPLE CODE\BATTLECITY\BATTLECITY\DEBUG\BATTLECITY.OBJ|C:\MYFILES\SAMPLE CODE\BATTLECITY\BATTLECITY\DEBUG\CLIENT.OBJ|C:\MYFILES\SAMPLE CODE\BATTLECITY\BATTLECITY\DEBUG\CONNECTIONWIDGET.OBJ|C:\MYFILES\SAMPLE CODE\BATTLECITY\BATTLECITY\DEBUG\MAIN.OBJ|C:\MYFILES\SAMPLE CODE\BATTLECITY\BATTLECITY\DEBUG\MOC_BATTLECITY.OBJ|C:\MYFILES\SAMPLE CODE\BATTLECITY\BATTLECITY\DEBUG\MOC_CONNECTIONWIDGET.OBJ|C:\MYFILES\SAMPLE CODE\BATTLECITY\BATTLECITY\DEBUG\QRC_BATTLECITY.OBJ|C:\MYFILES\SAMPLE CODE\BATTLECITY\BATTLECITY\DEBUG\SERVER.OBJ
C:\MYFILES\SAMPLE CODE\BATTLECITY\WIN32\DEBUG\BATTLECITY.ILK
C:\MYFILES\SAMPLE CODE\BATTLECITY\WIN32\DEBUG\BATTLECITY.EXE
C:\MYFILES\SAMPLE CODE\BATTLECITY\BATTLECITY\DEBUG\BATTLECITY.EXE.INTERMEDIATE.MANIFEST
C:\MYFILES\SAMPLE CODE\BATTLECITY\WIN32\DEBUG\BATTLECITY.PDB
