#Command: "c:\Program Files (x86)\Microsoft SDKs\Windows\v7.0A\bin\mt.exe" @C:\Users\Siddhesh\AppData\Local\Temp\f066704384274b09bc32f05516a75562.rsp
^C:\MYFILES\SAMPLE CODE\BATTLECITY\BATTLECITY\DEBUG\BATTLECITY.EXE.INTERMEDIATE.MANIFEST
C:\WINDOWS\GLOBALIZATION\SORTING\SORTDEFAULT.NLS
C:\USERS\SIDDHESH\APPDATA\LOCAL\TEMP\B8C25C1148624FB384A7B722876A9169.TMP
